{
  "hosting": {
    "public": "build",
    "rewrites": [
      {
        "source": "**",
        "destination": "/index.html"
      }
    ],
    "ignore": [
      "firebase.json",
      "package.json",
      "**/.*",
      "**/node_modules/**"
    ]
  },
  "database": {
    "rules": "database.rules.json"
  }
}
